{
  "questions": [
   {
 "id":0,
"title":"1+2",
"level":1,
"catagory":"numbers",
"choice":{
	"A":"3",
	"B":"4",
	"C":"5",
	"D":"6"
},
"answer":"A",
"explanation":"111"
},
   {
   "id":1,
"title":"3+4",
"level":1,
"catagory":"numbers",
"choice":{
	"A":"6",
	"B":"7",
	"C":"8",
	"D":"9"
},
"answer":"B",
"explanation":"222"
},
{
"id":2,
"title":"8-7",
"level":1,
"catagory":"numbers",
"choice":{
	"A":"3",
	"B":"2",
	"C":"1",
	"D":"0"
},
"answer":"C",
"explanation":"333"
},
{
"id":3,
"title":"9+4",
"level":1,
"catagory":"numbers",
"choice":{
	"A":"11",
	"B":"12",
	"C":"13",
	"D":"14"
},
"answer":"C",
"explanation":"444"
},
{
"id":4,
"title":"8+7",
"level":1,
"catagory":"numbers",
"choice":{
	"A":"9",
	"B":"12",
	"C":"15",
	"D":"18"
},
"answer":"C",
"explanation":"555"
},
{
"id":5,
"title":"5+4",
"level":1,
"catagory":"numbers",
"choice":{
	"A":"6",
	"B":"7",
	"C":"8",
	"D":"9"
},
"answer":"D",
"explanation":"666"
},
{
"id":6,
"title":"27+36",
"level":2,
"catagory":"numbers",
"choice":{
	"A":"58",
	"B":"63",
	"C":"65",
	"D":"68"
},
"answer":"B",
"explanation":"666"
},
{
"id":7,
"title":"36-19",
"level":2,
"catagory":"numbers",
"choice":{
	"A":"23",
	"B":"21",
	"C":"17",
	"D":"13"
},
"answer":"C",
"explanation":"666"
},
{
"id":8,
"title":"5×4",
"level":2,
"catagory":"numbers",
"choice":{
	"A":"10",
	"B":"20",
	"C":"30",
	"D":"40"
},
"answer":"B",
"explanation":"666"
},
{
"id":9,
"title":"1m = ",
"level":1,
"catagory":"measures",
"choice":{
	"A":"10cm",
	"B":"100cm",
	"C":"1000cm",
	"D":"10 000cm"
},
"answer":"B",
"explanation":"666"
},
{
"id":10,
"title":"1L = ",
"level":1,
"catagory":"measures",
"choice":{
	"A":"10mL",
	"B":"100mL",
	"C":"1000mL",
	"D":"10 000mL"
},
"answer":"C",
"explanation":"666"
},
{
"id":11,
"title":"1kg = ",
"level":1,
"catagory":"measures",
"choice":{
	"A":"10g",
	"B":"100g",
	"C":"1000g",
	"D":"10 000g"
},
"answer":"C",
"explanation":"666"
},
{
"id":12,
"title":"20÷5",
"level":2,
"catagory":"numbers",
"choice":{
	"A":"4",
	"B":"3",
	"C":"2",
	"D":"1"
},
"answer":"A",
"explanation":"666"
},
{
"id":13,
"title":"Remainder of 10÷3",
"level":2,
"catagory":"numbers",
"choice":{
	"A":"0",
	"B":"1",
	"C":"2",
	"D":"3"
},
"answer":"B",
"explanation":"666"
},
{
"id":14,
"title":"56÷7",
"level":2,
"catagory":"numbers",
"choice":{
	"A":"5",
	"B":"6",
	"C":"7",
	"D":"8"
},
"answer":"D",
"explanation":"666"
},
{
"id":15,
"title":"The base of cylinder is",
"level":2,
"catagory":"shape and space",
"choice":{
	"A":"Circle",
	"B":"Triangle",
	"C":"Square",
	"D":"Pentagon"
},
"answer":"A",
"explanation":"666"
},
{
"id":16,
"title":"A day starts at",
"level":2,
"catagory":"measures",
"choice":{
	"A":"00:00",
	"B":"05:00",
	"C":"06:00",
	"D":"07:00"
},
"answer":"A",
"explanation":"666"
},
{
"id":17,
"title":"How many hours are there in a day?",
"level":2,
"catagory":"measures",
"choice":{
	"A":"10",
	"B":"12",
	"C":"20",
	"D":"24"
},
"answer":"D",
"explanation":"666"
}
  ]
}
